"","gene","baseMean","log2FoldChange","lfcSE","stat","pvalue","padj","FaFgAl2,","FaFgAl2","FaFgAl3","FaFgCa1","FaFgCa2","FaFgCa3","FaFgCo1","FaFgCo2","FaFgCo3","SpFgAl1","SpFgAl2","SpFgCa2","SpFgCa3","SpFgCo1","SpFgCo3"
"1","FAGR_UCONN_11373",21.3971544845903,20.9007700596797,3.6451381306063,5.73387600436508,9.81611052544364e-09,0.000244332807088818,0,0.964645102085741,154.323301559826,0,0,0,1.32332654448677,61.6019361616685,102.744107900787,0,0,0,0,0,0
"2","FAGR_UCONN_07476",7.88752488496912,20.0238000878945,3.65304523545041,5.48139943452565,4.21974563148332e-08,0.000525168442566257,0,0,0,0,0,0,0,0,0,10.4313647943578,22.0135005887452,0,0,0,85.8680078914339
"3","FAGR_UCONN_28950",13.1274184277813,-3.63754388889167,0.727691040667273,-4.99874766295891,5.77038573456857e-07,0.00478768904397154,16.007179497866,8.68180591877167,14.4678095212337,20.4573716787789,36.3788759205221,6.43103875080529,1.32332654448677,1.86672533823238,3.35035134459088,22.7593413695078,13.2081003532471,32.1884426502296,17.0371117435648,2.75379578488311,0
"4","FAGR_UCONN_04208",81.4229016763472,4.21311293272694,0.94047303682649,4.47978067180274,7.47197781733477e-06,0.04649624996282,2.13429059971547,74.2776728606021,7.23390476061683,15.547602475872,4.69404850587382,0,74.1062864912592,370.544979639127,343.969404711331,9.48305890396159,4.40270011774904,17.9876591280695,19.041477831043,50.4862560561904,227.434183063798
"5","FAGR_UCONN_20330",11.5219010507552,3.88734397177415,0.908347985772793,4.2795757051929,1.87249938696883e-05,0.0932167644820823,8.53716239886186,7.71716081668593,18.0847619015421,0,0,0,17.203245078328,8.4002640220457,13.4014053783635,14.2245883559424,16.1432337650798,4.73359450738671,2.00436608747821,52.3221199127791,10.0566135368346
