"","gene","baseMean","log2FoldChange","lfcSE","stat","pvalue","padj","FaFgAl2,","FaFgAl2","FaFgAl3","FaFgCa1","FaFgCa2","FaFgCa3","FaFgCo1","FaFgCo2","FaFgCo3","SpFgAl1","SpFgAl2","SpFgCa1","SpFgCa2","SpFgCa3","SpFgCo1","SpFgCo2","SpFgCo3"
"1","FAGR_UCONN_11373",20.9794300234188,21.2374716391025,2.95388370862498,7.18967763595151,6.49444748913539e-13,1.63198970954483e-08,0,0.947252887679037,151.22956265817,0,0,0,1.29603775673608,59.7605625870413,100.629488404499,0,0,0,0,0,0,42.7874061039947,0
"2","FAGR_UCONN_00731",53.4315035526462,23.6090784855778,3.53413514181936,6.68029872604814,2.38455675844235e-11,2.9960763391449e-07,0,0,0,0,0,0,0,787.752870465545,0,0,0,0,0,0,0,120.58268992944,0
"3","FAGR_UCONN_06633",10.6550344354539,21.9004784155569,3.53548808814085,6.19447099511325,5.84811083932897e-10,4.89857257604992e-06,0,0,0,0,0,0,0,162.983352510113,0,0,0,0,0,0,0,18.1522328926038,0
"4","FAGR_UCONN_04208",72.6949998164504,3.82404946521305,0.864878268177148,4.42148867177895,9.80232043981364e-06,0.0615806275830192,2.0747209959286,72.9384723512859,7.08888574960172,15.2702065864885,4.58665963334009,0,72.5781143772203,359.468838591749,336.89002639767,9.26766599960887,4.29340137409811,18.9193400759745,17.4739946236011,18.8085152371823,49.2999556001872,25.9317612751483,220.924438010572
