"","gene","baseMean","log2FoldChange","lfcSE","stat","pvalue","padj","FaFgAl2,","FaFgAl2","FaFgAl3","FaFgCa1","FaFgCa2","FaFgCa3","FaFgCo1","FaFgCo2","FaFgCo3"
"1","FAGR_UCONN_18446",158.945027344046,-4.89787125408063,0.666288118314026,-7.35098093370507,1.96757488675445e-13,3.85074081086713e-09,4.10904647330793,14.3103271001949,1.136165133027,240.580655010471,162.97484058845,405.465954782398,289.957806142833,158.744347588282,153.226103277453
"2","FAGR_UCONN_12455",137.23027524545,-6.78667778860802,1.13806195350134,-5.9633640925507,2.470969852949e-09,2.20732660068528e-05,3.08178485498095,0.894395443762179,2.272330266054,1.50362909381544,233.450447329401,312.505467588385,178.80731378808,265.470773367975,237.086335476599
"3","FAGR_UCONN_24184",48.2720235366852,-23.1019168886878,3.90775314391914,-5.91181582814071,3.38356742223486e-09,2.20732660068528e-05,0,0,0,0,139.850032126575,0,213.843882030339,0,80.7542976732522
"4","FAGR_UCONN_21349",49.08492883284,-4.82346311693512,0.89687927949766,-5.3780516811992,7.52962049246581e-08,0.000368405506645121,3.08178485498095,5.36637266257307,1.136165133027,17.2917345788776,91.3980524921713,45.4913022438788,182.431786364865,58.2959468544539,37.2712143107318
"5","FAGR_UCONN_31778",57.5149147039792,8.30989207647617,1.6216778109259,5.12425589132997,2.98715072421614e-07,0.00116923053647268,232.161125741898,119.848989464132,2.272330266054,18.0435491257853,123.332311796665,20.7677684156838,1.20815752559514,0,0
"6","FAGR_UCONN_19344",30.9411232262458,-8.22726406814315,1.68600240896357,-4.87974633037487,1.06222376258478e-06,0.0034647968762578,0,0,0,0,59.4637931876777,51.4249503626456,25.3713080374978,91.4797935254507,50.7302639229405
"7","FAGR_UCONN_20737",29.412139180987,5.3982325034293,1.13074786040736,4.77403733621441,1.80568883404313e-06,0.00459443769007122,114.026039634295,124.320966682943,6.81699079816199,6.7663309221695,3.30354406598209,3.9557654125112,0,4.48430360418876,1.03531150863144
"8","FAGR_UCONN_30552",341.459670668879,1.82298444031141,0.382488026010979,4.7661215942459,1.87805945125797e-06,0.00459443769007122,375.977752307675,513.382984719491,569.218731646526,302.229447856904,566.007216638266,334.262177357196,114.774964931538,126.457361638123,170.826398924187
"9","FAGR_UCONN_21067",86.052114098447,-2.26272089557806,0.486813544642592,-4.64802370533734,3.35130407456126e-06,0.00728759689369316,23.6270172215206,27.7262587566275,18.178642128432,125.55302933359,159.671296522468,84.060015015863,147.395218122607,68.1614147836692,120.096135001247
"10","FAGR_UCONN_14571",43.5919171550029,3.6651006440116,0.797013763708393,4.59854121835789,4.2545954633531e-06,0.00832666878132834,78.0718829928506,65.2908673946391,144.292971894429,15.7881054850622,9.91063219794628,56.3696571282846,3.62447257678541,4.48430360418876,14.4943611208401
"11","FAGR_UCONN_07398",25.035789923384,7.55970462217305,1.66976549388444,4.52740498582626,5.97124349118256e-06,0.0106239278514485,74.9900981378697,33.0926314192006,0,29.3207673294012,57.261430477023,30.6571819469618,0,0,0
"12","FAGR_UCONN_25866",23.7119339755732,3.13066805742167,0.700281765193288,4.47058343230965,7.80065052663416e-06,0.0127222109547298,58.553912244638,66.1852628384012,40.9019447889719,14.2844763912467,4.40472542130946,9.889413531278,9.66526020476108,5.38116432502651,4.14124603452575
"13","FAGR_UCONN_12000",54.7727485485603,2.95076297648698,0.668762381156529,4.41227416438117,1.02290468520643e-05,0.0153994366109039,205.452323665396,84.967567157407,53.3997612522689,27.065323688678,28.6307152385115,49.44706765639,6.04078762797568,22.4215180209438,15.5296726294716
"14","FAGR_UCONN_11227",34.3863701569318,-2.87974233879337,0.656008439657803,-4.38979465004374,1.13457750388289e-05,0.01586058309178,15.4089242749047,7.15516355009743,11.36165133027,5.26270182835405,8.80945084261892,12.8562375906614,102.693389675587,107.62328650053,38.3065258193632
"15","FAGR_UCONN_27351",184.045113728284,2.59337119108253,0.594848359772117,4.35971815081752,1.30230070071304e-05,0.0169915513424367,530.066995056723,261.163469578556,246.547833866859,54.130647377356,266.485887989222,125.595551847231,84.5710267916595,41.2555931585366,46.5890178884147
"16","FAGR_UCONN_18907",18.7504899207142,-3.68625075089581,0.864340036228407,-4.2648154619575,2.00067489192438e-05,0.0244720051936575,5.13630809163491,0,2.272330266054,25.5616945948625,20.9224457512199,21.7567097688116,38.6610408190443,29.5964037876458,24.8474762071545
"17","FAGR_UCONN_31498",126.178927908765,-2.38011772115584,0.572829167894521,-4.15502187136202,3.25256427932795e-05,0.0374446679474866,46.2267728247142,22.3598860940545,29.5402934587019,281.930455090396,62.7673372536598,182.954150328643,117.191279982728,192.825054980117,199.815121165868
"18","FAGR_UCONN_20084",71.7641794823261,-3.053460006581,0.740841640438663,-4.12160958551547,3.76234424540965e-05,0.0409071329038402,31.8451101681364,2.68318633128654,9.08932106421598,70.6705674093259,49.5531609897314,121.639786434719,88.1954993684449,188.340751375928,83.8602321991465
"19","FAGR_UCONN_20657",21.8795749130476,4.54768517009952,1.14176829459709,3.98301931453117,6.80452230854993e-05,0.070090161105595,53.4176041530031,41.1421904130602,2.272330266054,32.328025517032,31.9342593044936,31.6461233000896,1.20815752559514,0.896860720837752,2.07062301726288
"20","FAGR_UCONN_11062",7.17012380467791,-6.24261667812669,1.58235704520339,-3.94513785434835,7.97540826447713e-05,0.0780433575720409,0,0,0,3.75907273453861,5.50590677663682,12.8562375906614,18.122362883927,17.0403536959173,7.24718056042007
"21","FAGR_UCONN_24809",29.6080939191147,-3.76650171702087,0.972382807524781,-3.87347625634041,0.000107293864233197,0.0999927722337092,1.02726161832698,9.83834988138397,4.54466053210799,3.75907273453861,4.40472542130946,30.6571819469618,70.0731364845179,31.3901252293213,110.778331423564
