"PC1"	"PC2"	"PC3"	"PC4"	"PC5"	"PC6"	"PC7"	"PC8"	"type_sp"
"SpFgAl1"	-19.5885054114097	8.07807644799908	-1.02731293329985	15.5949312766175	5.4516458186167	2.59938934105725	17.0252936966096	8.68749516769185e-15	"Al"
"SpFgAl2"	17.237807561302	-5.02599781918852	-12.8338477197676	4.82560251194063	18.4326249545331	8.14185663623126	-10.0101595594368	1.02591546369268e-14	"Al"
"SpFgCa1"	40.5918274496988	19.0558537139672	4.95100155675297	-7.21484928020159	2.28250661497649	-9.99417877233107	2.54452802777792	1.66533453693773e-16	"Ca"
"SpFgCa2"	25.515496301897	-9.25729702395104	13.2366692924185	10.9485014609753	-14.7854589349085	9.4960039806732	-2.91391288238774	-1.22124532708767e-15	"Ca"
"SpFgCa3"	-33.3376499869153	4.69682586250925	7.65066355045739	7.1074320691943	-0.477008475958466	-12.5469178790328	-14.3112348846783	1.80411241501588e-15	"Ca"
"SpFgCo1"	-4.65724310055536	-22.9216670744883	9.06900395478667	-11.462243665139	7.55449909022958	-7.30745783670411	7.53704290123871	-4.96130914129367e-15	"Co"
"SpFgCo2"	-1.27680184091159	-4.78351135838583	-23.9411380535673	-2.81873779291327	-15.4697135108832	-6.16284558740922	1.64855877059223	1.66290592407137e-14	"Co"
"SpFgCo3"	-24.4849309731058	10.1577172515381	2.89496035221921	-16.9806365804739	-2.98909555660574	15.7741501175155	-1.52011606971555	1.20146947946154e-14	"Co"
